QTM150 Final Project
…
## 
##  06C  06D  08A  10B  10F 
## 1021 1389 1619 1225 3296

#summary table
summary2_m2019 <- m2019vc %>%
  group_by(CUISINE.DESCRIPTION, VIOLATION.CODE) %>%
  arrange(SCORE1) %>%
  summarise(avg = mean(SCORE1, na.rm = T))

## `summarise()` regrouping output by 'CUISINE.DESCRIPTION' (override with `.groups` argument)

summary2_m2019

## # A tibble: 30 x 3
## # Groups:   CUISINE.DESCRIPTION [6]
##    CUISINE.DESCRIPTION VIOLATION.CODE   avg
##    <chr>               <chr>          <dbl>
##  1 American            06C            12.7 
##  2 American            06D            12.1 
##  3 American            08A            15.7 
##  4 American            10B            11.6 
##  5 American            10F            10.1 
##  6 Caf/Coffee/Tea     06C            11.7 
##  7 Caf/Coffee/Tea     06D            10.3 
##  8 Caf/Coffee/Tea     08A            13.6 
##  9 Caf/Coffee/Tea     10B             9.02
## 10 Caf/Coffee/Tea     10F             7.67
## #  with 20 more rows
…
